%YAML 1.1
%TAG !u! tag:unity3d.com,2011:
--- !u!162 &1
EditorUserSettings:
  m_ObjectHideFlags: 0
  serializedVersion: 4
  m_ConfigSettings:
    RecentlyUsedScenePath-0:
      value: 22424703114646680e0b0227036c731f171311242b1b2522282c137df7ee3d2cfb
      flags: 0
    RecentlyUsedScenePath-1:
      value: 22424703114646680e0b0227036c72111f19352f223d68252320092a
      flags: 0
    RecentlyUsedScenePath-2:
      value: 22424703114646680e0b0227036c78111b123e232924227e38271427fb
      flags: 0
    RecentlyUsedScenePath-3:
      value: 22424703114646680e0b0227036c7c1f18040c2b223c357e38271427fb
      flags: 0
    RecentlyUsedScenePath-4:
      value: 22424703114646680e0b0227036c791904040c1a293a353f231d1820f6d42337acf238e0f323
      flags: 0
    UnityRemoteCompression:
      value: 337f73
      flags: 0
    lightmappingDeviceAndPlatform:
      value: 53
      flags: 0
    vcSharedLogLevel:
      value: 0d5e400f0650
      flags: 0
  m_VCAutomaticAdd: 1
  m_VCDebugCom: 0
  m_VCDebugCmd: 0
  m_VCDebugOut: 0
  m_SemanticMergeMode: 2
  m_VCShowFailedCheckout: 1
  m_VCOverwriteFailedCheckoutAssets: 1
  m_VCProjectOverlayIcons: 1
  m_VCHierarchyOverlayIcons: 1
  m_VCOtherOverlayIcons: 1
  m_VCAllowAsyncUpdate: 0
